%YAML 1.1
%TAG !u! tag:unity3d.com,2011:
--- !u!21 &2100000
Material:
  serializedVersion: 6
  m_ObjectHideFlags: 0
  m_PrefabParentObject: {fileID: 0}
  m_PrefabInternal: {fileID: 0}
  m_Name: crate_wineCrate
  m_Shader: {fileID: 51, guid: 0000000000000000f000000000000000, type: 0}
  m_ShaderKeywords: _ALPHAPREMULTIPLY_ON
  m_LightmapFlags: 5
  m_EnableInstancingVariants: 0
  m_CustomRenderQueue: 2450
  stringTagMap:
    RenderType: Transparent
  disabledShaderPasses: []
  m_SavedProperties:
    serializedVersion: 3
    m_TexEnvs:
    - _BumpMap:
        m_Texture: {fileID: 0}
        m_Scale: {x: 1, y: 1}
        m_Offset: {x: 0, y: 0}
    - _DetailAlbedoMap:
        m_Texture: {fileID: 0}
        m_Scale: {x: 1, y: 1}
        m_Offset: {x: 0, y: 0}
    - _DetailMask:
        m_Texture: {fileID: 0}
        m_Scale: {x: 1, y: 1}
        m_Offset: {x: 0, y: 0}
    - _DetailNormalMap:
        m_Texture: {fileID: 0}
        m_Scale: {x: 1, y: 1}
        m_Offset: {x: 0, y: 0}
    - _DetailTex:
        m_Texture: {fileID: 0}
        m_Scale: {x: 1, y: 1}
        m_Offset: {x: 0, y: 0}
    - _EmissionMap:
        m_Texture: {fileID: 0}
        m_Scale: {x: 1, y: 1}
        m_Offset: {x: 0, y: 0}
    - _GlossMap:
        m_Texture: {fileID: 0}
        m_Scale: {x: 1, y: 1}
        m_Offset: {x: 0, y: 0}
    - _MainTex:
        m_Texture: {fileID: 2800000, guid: 023e027f816e316428544e209ba0b3fc, type: 3}
        m_Scale: {x: 1, y: 1}
        m_Offset: {x: 0, y: 0}
    - _MetallicGlossMap:
        m_Texture: {fileID: 0}
        m_Scale: {x: 1, y: 1}
        m_Offset: {x: 0, y: 0}
    - _OcclusionMap:
        m_Texture: {fileID: 0}
        m_Scale: {x: 1, y: 1}
        m_Offset: {x: 0, y: 0}
    - _ParallaxMap:
        m_Texture: {fileID: 0}
        m_Scale: {x: 1, y: 1}
        m_Offset: {x: 0, y: 0}
    - _ShadowOffset:
        m_Texture: {fileID: 0}
        m_Scale: {x: 1, y: 1}
        m_Offset: {x: 0, y: 0}
    - _SpecGlossMap:
        m_Texture: {fileID: 0}
        m_Scale: {x: 1, y: 1}
        m_Offset: {x: 0, y: 0}
    - _TranslucencyMap:
        m_Texture: {fileID: 0}
        m_Scale: {x: 1, y: 1}
        m_Offset: {x: 0, y: 0}
    m_Floats:
    - PixelSnap: 0
    - _AO: 5.9
    - _BaseLight: 0.518
    - _BumpScale: 1
    - _ColorMask: 15
    - _Cull: 2
    - _Cutoff: 0.798
    - _DetailNormalMapScale: 1
    - _DstBlend: 10
    - _Glossiness: 1
    - _Metallic: 0
    - _Mode: 3
    - _Occlusion: 8.39
    - _OcclusionStrength: 1
    - _Parallax: 0.005
    - _ShadowStrength: 1
    - _Shininess: 0.1
    - _SquashAmount: 1
    - _SrcBlend: 1
    - _Stencil: 0
    - _StencilComp: 8
    - _StencilOp: 0
    - _StencilReadMask: 255
    - _StencilWriteMask: 255
    - _TranslucencyViewDependency: 0.7
    - _UVSec: 0
    - _WindQuality: 0
    - _ZWrite: 0
    m_Colors:
    - _Color: {r: 1, g: 1, b: 1, a: 1}
    - _Emission: {r: 0, g: 0, b: 0, a: 0}
    - _EmissionColor: {r: 0, g: 0, b: 0, a: 1}
    - _HueVariation: {r: 1, g: 0.5, b: 0, a: 0.1}
    - _ImageTexCoords0: {r: 0, g: 0, b: 0, a: 0}
    - _ImageTexCoords1: {r: 0, g: 0, b: 0, a: 0}
    - _ImageTexCoords10: {r: 0, g: 0, b: 0, a: 0}
    - _ImageTexCoords11: {r: 0, g: 0, b: 0, a: 0}
    - _ImageTexCoords12: {r: 0, g: 0, b: 0, a: 0}
    - _ImageTexCoords13: {r: 0, g: 0, b: 0, a: 0}
    - _ImageTexCoords14: {r: 0, g: 0, b: 0, a: 0}
    - _ImageTexCoords15: {r: 0, g: 0, b: 0, a: 0}
    - _ImageTexCoords16: {r: 0, g: 0, b: 0, a: 0}
    - _ImageTexCoords17: {r: 0, g: 0, b: 0, a: 0}
    - _ImageTexCoords18: {r: 0, g: 0, b: 0, a: 0}
    - _ImageTexCoords19: {r: 0, g: 0, b: 0, a: 0}
    - _ImageTexCoords2: {r: 0, g: 0, b: 0, a: 0}
    - _ImageTexCoords20: {r: 0, g: 0, b: 0, a: 0}
    - _ImageTexCoords21: {r: 0, g: 0, b: 0, a: 0}
    - _ImageTexCoords22: {r: 0, g: 0, b: 0, a: 0}
    - _ImageTexCoords23: {r: 0, g: 0, b: 0, a: 0}
    - _ImageTexCoords24: {r: 0, g: 0, b: 0, a: 0}
    - _ImageTexCoords25: {r: 0, g: 0, b: 0, a: 0}
    - _ImageTexCoords26: {r: 0, g: 0, b: 0, a: 0}
    - _ImageTexCoords27: {r: 0, g: 0, b: 0, a: 0}
    - _ImageTexCoords28: {r: 0, g: 0, b: 0, a: 0}
    - _ImageTexCoords29: {r: 0, g: 0, b: 0, a: 0}
    - _ImageTexCoords3: {r: 0, g: 0, b: 0, a: 0}
    - _ImageTexCoords30: {r: 0, g: 0, b: 0, a: 0}
    - _ImageTexCoords31: {r: 0, g: 0, b: 0, a: 0}
    - _ImageTexCoords4: {r: 0, g: 0, b: 0, a: 0}
    - _ImageTexCoords5: {r: 0, g: 0, b: 0, a: 0}
    - _ImageTexCoords6: {r: 0, g: 0, b: 0, a: 0}
    - _ImageTexCoords7: {r: 0, g: 0, b: 0, a: 0}
    - _ImageTexCoords8: {r: 0, g: 0, b: 0, a: 0}
    - _ImageTexCoords9: {r: 0, g: 0, b: 0, a: 0}
    - _SpecColor: {r: 0.2, g: 0.2, b: 0.2, a: 1}
    - _TranslucencyColor: {r: 0.73, g: 0.85, b: 0.41, a: 1}
    - _TreeInfo0: {r: 0, g: 0, b: 0, a: 0}
    - _TreeInfo1: {r: 0, g: 0, b: 0, a: 0}
    - _TreeInfo2: {r: 0, g: 0, b: 0, a: 0}
    - _TreeInfo3: {r: 0, g: 0, b: 0, a: 0}
    - _TreeInstanceColor: {r: 1, g: 1, b: 1, a: 1}
    - _TreeInstanceScale: {r: 1, g: 1, b: 1, a: 1}
    - _TreeSize0: {r: 0, g: 0, b: 0, a: 0}
    - _TreeSize1: {r: 0, g: 0, b: 0, a: 0}
    - _TreeSize2: {r: 0, g: 0, b: 0, a: 0}
    - _TreeSize3: {r: 0, g: 0, b: 0, a: 0}
